[
	{
		"model": "planning.function",
		"pk": 2,
		"fields": {
			"name": "comptable"
		}
	},
	{
		"model": "planning.function",
		"pk": 3,
		"fields": {
			"name": "chargé d'accueil"
		}
	},
	{
		"model": "planning.function",
		"pk": 4,
		"fields": {
			"name": "chargé gestion locative"
		}
	},
	{
		"model": "planning.function",
		"pk": 5,
		"fields": {
			"name": "chargé attribution logements"
		}
	},
	{
		"model": "planning.function",
		"pk": 6,
		"fields": {
			"name": "médiateur"
		}
	},
	{
		"model": "planning.function",
		"pk": 7,
		"fields": {
			"name": "responsable administratif et juridique"
		}
	},
	{
		"model": "planning.function",
		"pk": 8,
		"fields": {
			"name": "responsable des finances"
		}
	},
	{
		"model": "planning.function",
		"pk": 9,
		"fields": {
			"name": "technicien informatique"
		}
	},
	{
		"model": "planning.function",
		"pk": 10,
		"fields": {
			"name": "chargé prévention impayés"
		}
	},
	{
		"model": "planning.function",
		"pk": 11,
		"fields": {
			"name": "employé administratif non qualifié"
		}
	},
	{
		"model": "planning.function",
		"pk": 12,
		"fields": {
			"name": "conseiller social"
		}
	},
	{
		"model": "planning.function",
		"pk": 13,
		"fields": {
			"name": "assistant de direction"
		}
	},
	{
		"model": "planning.function",
		"pk": 14,
		"fields": {
			"name": "chargé de contentieux"
		}
	},
	{
		"model": "planning.function",
		"pk": 15,
		"fields": {
			"name": "directeur général"
		}
	},
	{
		"model": "planning.function",
		"pk": 16,
		"fields": {
			"name": "directeur adjoint"
		}
	},
	{
		"model": "planning.function",
		"pk": 17,
		"fields": {
			"name": "directeur des services techniques"
		}
	},
	{
		"model": "planning.function",
		"pk": 18,
		"fields": {
			"name": "assistant service technique"
		}
	},
	{
		"model": "planning.function",
		"pk": 19,
		"fields": {
			"name": "technicien de maintenance"
		}
	},
	{
		"model": "planning.function",
		"pk": 20,
		"fields": {
			"name": "technicien"
		}
	},
	{
		"model": "planning.function",
		"pk": 21,
		"fields": {
			"name": "responsable chef de service"
		}
	},
	{
		"model": "planning.function",
		"pk": 22,
		"fields": {
			"name": "responsable régie des travaux"
		}
	},
	{
		"model": "planning.function",
		"pk": 23,
		"fields": {
			"name": "plombier"
		}
	},
	{
		"model": "planning.function",
		"pk": 24,
		"fields": {
			"name": "electricien"
		}
	},
	{
		"model": "planning.function",
		"pk": 25,
		"fields": {
			"name": "ouvrier polyvalent"
		}
	},
	{
		"model": "planning.function",
		"pk": 26,
		"fields": {
			"name": "peintre"
		}
	},
	{
		"model": "planning.function",
		"pk": 27,
		"fields": {
			"name": "menuisier"
		}
	},
	{
		"model": "planning.function",
		"pk": 28,
		"fields": {
			"name": "ouvrier de maintenance"
		}
	},
	{
		"model": "planning.function",
		"pk": 29,
		"fields": {
			"name": "chargé d'opération"
		}
	},
	{
		"model": "planning.function",
		"pk": 30,
		"fields": {
			"name": "conducteur de travaux"
		}
	},
	{
		"model": "planning.family",
		"pk": 2,
		"fields": {
			"name": "administration",
			"color": "#000000",
			"priority": 0,
			"order": 3
		}
	},
	{
		"model": "planning.family",
		"pk": 3,
		"fields": {
			"name": "direction",
			"color": "#000000",
			"priority": 6,
			"order": 6
		}
	},
	{
		"model": "planning.family",
		"pk": 4,
		"fields": {
			"name": "technique",
			"color": "#000000",
			"priority": 2,
			"order": 9
		}
	},
	{
		"model": "planning.family",
		"pk": 5,
		"fields": {
			"name": "régie",
			"color": "#000000",
			"priority": 4,
			"order": 12
		}
	},
	{
		"model": "planning.family",
		"pk": 6,
		"fields": {
			"name": "parti",
			"color": "#000000",
			"priority": 10,
			"order": 100
		}
	},
	{
		"model": "planning.daypart",
		"pk": 0,
		"fields": {
			"name": "matin"
		}
	},
	{
		"model": "planning.daypart",
		"pk": 1,
		"fields": {
			"name": "après-midi"
		}
	},
	{
		"model": "planning.nonattendancetype",
		"pk": 1,
		"fields": {
			"name": "congé",
			"color": "#000000",
			"override_leaves": true
		}
	},
	{
		"model": "planning.nonattendancetype",
		"pk": 2,
		"fields": {
			"name": "RTT",
			"color": "#000000",
			"override_leaves": true
		}
	},
	{
		"model": "planning.nonattendancetype",
		"pk": 3,
		"fields": {
			"name": "maladie",
			"color": "#000000",
			"override_leaves": false
		}
	},
	{
		"model": "planning.nonattendancetype",
		"pk": 4,
		"fields": {
			"name": "formation",
			"color": "#000000",
			"override_leaves": false
		}
	},
	{
		"model": "planning.nonattendancetype",
		"pk": 5,
		"fields": {
			"name": "congé exceptionnel",
			"color": "#000000",
			"override_leaves": false
		}
	},
	{
		"model": "planning.nonattendancetype",
		"pk": 6,
		"fields": {
			"name": "congé paternité",
			"color": "#000000",
			"override_leaves": false
		}
	},
	{
		"model": "planning.nonattendancetype",
		"pk": 7,
		"fields": {
			"name": "enfant malade",
			"color": "#000000",
			"override_leaves": false
		}
	},
	{
		"model": "planning.nonattendancetype",
		"pk": 8,
		"fields": {
			"name": "temps partiel",
			"color": "#000000",
			"override_leaves": true
		}
	},
	{
		"model": "planning.nonattendancetype",
		"pk": 9,
		"fields": {
			"name": "congé maternité",
			"color": "#000000",
			"override_leaves": false
		}
	},
	{
		"model": "planning.nonattendancetype",
		"pk": 10,
		"fields": {
			"name": "congé pathologie",
			"color": "#000000",
			"override_leaves": false
		}
	},
	{
		"model": "planning.setting",
		"fields": {
			"name": "couleur_astreinte",
			"value": "#000000"
		}
	},
	{
		"model": "planning.setting",
		"fields": {
			"name": "couleur_intervalle_vide",
			"value": "rgba(0, 0, 0, 0)"
		}
	},
	{
		"model": "planning.setting",
		"fields": {
			"name": "nom_absence_type_conge",
			"value": "congé"
		}
	},
	{
		"model": "planning.setting",
		"fields": {
			"name": "couleur_weekend",
			"value": "#000000"
		}
	},
	{
		"model": "planning.setting",
		"fields": {
			"name": "couleur_fériés",
			"value": "#000000"
		}
	},
	{
		"model": "planning.setting",
		"fields": {
			"name": "afficher_le_nom_des_jours",
			"value": "True"
		}
	},
	{
		"model": "planning.setting",
		"fields": {
			"name": "affichage_alternatif",
			"value": "False"
		}
	}
]
